[
  {
    "name": "Broken Counter",
    "status": 0,
    "description": "Someone cracked the very very expensive marble counter.",
    "id": 1,
    "facility": {
      "name": "Summit Tower"
    },
    "space": {
      "name": "Kitchen"
    }
  },
  {
    "name": "Broken Window",
    "image": "a",
    "description": "Some threw a rock through the window",
    "status": 0,
    "id": 2,
    "facility": {
      "name": "Sterling Plaza"
    },
    "space": {
      "name": "Room #1"
    }
  },
  {
    "name": "Broken Sink",
    "status": 0,
    "description": "Cracked sink with a hammer, maybe related to lowered salaries.",
    "id": 3,
    "facility": {
      "name": "Horizon Center"
    },
    "space": {
      "name": "Office Room #1"
    }
  },
  {
    "name": "Lights not working",
    "image": "a",
    "status": 1,
    "user": 0,
    "description": "Some of the lights aren't working",
    "id": 5,
    "facility": {
      "name": "Horizon Center"
    },
    "space": {
      "name": "Server Room"
    }
  },
  {
    "user": 0,
    "name": "Broken Pump",
    "status": 1,
    "description": "The pump isn't pumpin'",
    "id": 6,
    "facility": {
      "name": "Summit Tower"
    },
    "space": {
      "name": "Public Pool"
    }
  },
  {
    "name": "Broken Cabinet",
    "status": 2,
    "user": 0,
    "id": 7,
    "description": "Someone broke the cabinet and stole one part of it.",
    "facility": {
      "name": "Horizon Center"
    },
    "space": {
      "name": "Rest Area"
    }
  },
  {
    "name": "Burnt Oven",
    "image": "a",
    "status": 2,
    "user": 0,
    "description": "someone forgor overnight",
    "id": 8,
    "facility": {
      "name": "Summit Tower"
    },
    "space": {
      "name": "Kitchen"
    }
  },
  {
    "name": "Broken Floor Tile",
    "status": 2,
    "user": 0,
    "description": "Someone dropped an item here.",
    "id": 10,
    "facility": {
      "name": "Quantum Tower"
    },
    "space": {
      "name": "Server Room"
    }
  },
  {
    "name": "Broken Chair",
    "image": "a",
    "status": 2,
    "description": "Someone dropped a chair out of the window",
    "id": 11,
    "user": 0,
    "facility": {
      "name": "Summit Tower"
    },
    "space": {
      "name": "Room #42"
    }
  },
  {
    "name": "Broken Window",
    "image": "a",
    "status": 2,
    "description": "Someone dropped a chair through the window",
    "id": 12,
    "user": 0,
    "facility": {
      "name": "Summit Tower"
    },
    "space": {
      "name": "Room #42"
    }
  },
  {
    "name": "Broken Sink",
    "user": 0,
    "status": 2,
    "description": "How?",
    "id": 13,
    "facility": {
      "name": "Summit Tower"
    },
    "space": {
      "name": "Room #3"
    }
  },
  {
    "name": "Broken Bed",
    "status": 2,
    "user": 0,
    "description": "How?",
    "id": 14,
    "facility": {
      "name": "Horizon Center"
    },
    "space": {
      "name": "Room #2"
    }
  },
  {
    "name": "Broken Floor Tile",
    "status": 2,
    "user": 0,
    "description": "Someone dropped an item here.",
    "id": 15,
    "facility": {
      "name": "Quantum Tower"
    },
    "space": {
      "name": "Server Room"
    }
  }
]
